Download Stock Constituents From Several Stock Indexes • YahooTickers
…
You can install YahooTickers from github with:

# install.packages("devtools")
devtools::install_github("Reckziegel/YahooTickers")

Examples

To download all the stock constituents of the Dow Jones Industrial Average use get_tickers() and get_stocks() in one pipeline.

dow <- get_tickers(dow) %>% 
  get_stocks(., periodicity = "monthly")

dow 
#> # A tibble: 3,880 x 8
#>    date       tickers  open  high   low close    volume adjusted
#>    <date>     <fct>   <dbl> <dbl> <dbl> <dbl>     <dbl>    <dbl>
#>  1 2010-01-01 WMT      53.7  55.2  52.5  53.4 291591500     40.8
#>  2 2010-02-01 WMT      53.6  54.5  52.7  54.1 278505000     41.3
#>  3 2010-03-01 WMT      54.0  56.3  53.2  55.6 270764400     42.4
#>  4 2010-04-01 WMT      55.8  55.9  53.5  53.6 282951100     41.2
#>  5 2010-05-01 WMT      53.9  55.0  50    50.6 398119000     38.8
#>  6 2010-06-01 WMT      50.8  52.1  48.0  48.1 390548500     37.1
#>  7 2010-07-01 WMT      48.1  51.8  47.8  51.2 280340800     39.5
#>  8 2010-08-01 WMT      51.5  52.5  50    50.1 272559100     38.7
#>  9 2010-09-01 WMT      50.5  54.4  50.5  53.5 216284000     41.6
#> 10 2010-10-01 WMT      53.6  54.8  52.9  54.2 208445100     42.1
#> # ... with 3,870 more rows
…
merval_models
#> # A tibble: 496 x 17
#>    date       tickers data  term  estimate model.desc sigma logLik   AIC   BIC
#>    <date>     <fct>   <lis> <fct>    <dbl> <fct>      <dbl>  <dbl> <dbl> <dbl>
#>  1 2018-06-01 GGAL.BA <tib~ alpha 0.000100 ETS(A,N,N) 0.126  -22.5  50.9  58.7
#>  2 2018-06-01 GGAL.BA <tib~ l     0.0397   ETS(A,N,N) 0.126  -22.5  50.9  58.7
#>  3 2018-07-01 GGAL.BA <tib~ alpha 0.000100 ETS(A,N,N) 0.127  -23.3  52.6  60.4
#>  4 2018-07-01 GGAL.BA <tib~ l     0.0383   ETS(A,N,N) 0.127  -23.3  52.6  60.4
#>  5 2018-08-01 GGAL.BA <tib~ alpha 0.000100 ETS(A,N,N) 0.126  -23.5  53.1  60.9
#>  6 2018-08-01 GGAL.BA <tib~ l     0.0381   ETS(A,N,N) 0.126  -23.5  53.1  60.9
#>  7 2018-09-01 GGAL.BA <tib~ alpha 0.000100 ETS(A,N,N) 0.126  -24.6  55.2  63.1
#>  8 2018-09-01 GGAL.BA <tib~ l     0.0366   ETS(A,N,N) 0.126  -24.6  55.2  63.1
#>  9 2018-10-01 GGAL.BA <tib~ alpha 0.000100 ETS(A,N,N) 0.127  -25.7  57.5  65.4
#> 10 2018-10-01 GGAL.BA <tib~ l     0.0382   ETS(A,N,N) 0.127  -25.7  57.5  65.4
#> # ... with 486 more rows, and 7 more variables: ME <dbl>, RMSE <dbl>,
#> #   MAE <dbl>, MPE <dbl>, MAPE <dbl>, MASE <dbl>, ACF1 <dbl>

In this case, the the ETS function was used to fit the first 100 observations on a expanding window, .cumulative = TRUE. The output contains the fitted parameters, selection criterias, as some traditional in-sample error metrics.

To extract the true out-of-sample forecasts use get_forecasts(). This function automatically identifies the .assess argument in get_models() and uses it as a target for the forecast horizon.

library(forecast)

merval_models  %>% 
  get_forecasts(.)
#> # A tibble: 248 x 8
#>    date       tickers ret_adj point_forecast  lo.80  lo.95 hi.80 hi.95
#>    <date>     <fct>     <dbl>          <dbl>  <dbl>  <dbl> <dbl> <dbl>
#>  1 2018-06-01 GGAL.BA -0.0998         0.0397 -0.122 -0.208 0.202 0.287
#>  2 2018-07-01 GGAL.BA  0.0244         0.0383 -0.124 -0.210 0.200 0.286
#>  3 2018-08-01 GGAL.BA -0.123          0.0381 -0.123 -0.209 0.200 0.285
#>  4 2018-09-01 GGAL.BA  0.205          0.0366 -0.125 -0.211 0.198 0.284
#>  5 2018-10-01 GGAL.BA -0.238          0.0382 -0.124 -0.210 0.201 0.287
#>  6 2018-11-01 GGAL.BA  0.202          0.0356 -0.130 -0.217 0.201 0.289
#>  7 2018-12-01 GGAL.BA  0.0136         0.0372 -0.129 -0.217 0.203 0.291
#>  8 2019-01-01 GGAL.BA  0.270          0.0369 -0.128 -0.216 0.202 0.290
#>  9 2019-02-01 GGAL.BA -0.114          0.0391 -0.128 -0.216 0.206 0.294
#> 10 2019-03-01 GGAL.BA -0.0873         0.0377 -0.130 -0.218 0.205 0.293
#> # ... with 238 more rows
…
