Get The Tickers Required by the Yahoo API — get_tickers • YahooTickers
…
ipc: BMV IPC Index (Mexico)

ipsa: IPSA Index (Chile)

merval: Merval Index (Argentina)

    Examples

library(YahooTickers)

# get the brazilian stocks index tickers
get_tickers(ibovespa)

#> Yahoo does not provide the Ibovespa Index components. Tickers been downloaded from: topforeignstocks.com.
#> # A tibble: 81 x 1
#>    tickers    
#>    <chr>      
#>  1 WEGE3.SA.SA
#>  2 EMBR3.SA.SA
#>  3 AZUL4.SA.SA
#>  4 CCRO3.SA.SA
#>  5 ECOR3.SA.SA
#>  6 GOLL4.SA.SA
#>  7 RAIL3.SA.SA
#>  8 BRFS3.SA.SA
#>  9 JBSS3.SA.SA
#> 10 MRFG3.SA.SA
#> # ... with 71 more rows

# get the sp500 stocks tickers
get_tickers(sp500)

#> Yahoo does not provide the S&P 500 components. Tickers been downloaded from: en.wikipedia.org/wiki/List_of_S%26P_500_companies.
#> # A tibble: 505 x 1
#>    tickers
#>    <chr>  
#>  1 MMM    
#>  2 ABT    
#>  3 ABBV   
#>  4 ABMD   
#>  5 ACN    
#>  6 ATVI   
#>  7 ADBE   
#>  8 AMD    
#>  9 AAP    
#> 10 AES    
#> # ... with 495 more rows
…
